Useful Functions for Data Processing • baizer
…
mini_diamond %>% filterC(c1 & c2)
#> # A tibble: 3 × 7
#>   id    carat cut   clarity price     x     y
#>   <chr> <dbl> <chr> <chr>   <int> <dbl> <dbl>
#> 1 id-6   2.02 Fair  SI2     14080  8.33  8.37
#> 2 id-48  2.01 Fair  I1       7294  8.3   8.19
#> 3 id-68  2.32 Fair  SI1     18026  8.47  8.31

more strict limitation to avoid the unexpected default behavior

# default behavior of dplyr::filter, use column in data at first
x <- 8
mini_diamond %>% dplyr::filter(y > x)
#> # A tibble: 53 × 7
#>    id    carat cut   clarity price     x     y
#>    <chr> <dbl> <chr> <chr>   <int> <dbl> <dbl>
#>  1 id-3   0.52 Ideal VVS1     2029  5.15  5.18
#>  2 id-4   1.54 Ideal SI2      9452  7.43  7.45
#>  3 id-5   0.72 Ideal VS1      2498  5.73  5.77
#>  4 id-6   2.02 Fair  SI2     14080  8.33  8.37
#>  5 id-8   0.51 Good  SI2      1029  5.05  5.08
#>  6 id-11  1.02 Good  VVS1     7861  6.37  6.4 
#>  7 id-13  0.56 Ideal SI1      1633  5.31  5.32
#>  8 id-14  0.3  Ideal VVS2      812  4.33  4.39
#>  9 id-15  0.28 Good  IF        612  4.09  4.12
#> 10 id-16  0.41 Good  I1        467  4.7   4.74
#> # … with 43 more rows

# so the default behavior of filterC is just like that
# but if you want y > 8, and the defination of cond is far away from
# its application, the results may be unexpected

x <- 8
cond <- tbflt(y > x)
mini_diamond %>% filterC(cond)
#> # A tibble: 53 × 7
#>    id    carat cut   clarity price     x     y
#>    <chr> <dbl> <chr> <chr>   <int> <dbl> <dbl>
#>  1 id-3   0.52 Ideal VVS1     2029  5.15  5.18
#>  2 id-4   1.54 Ideal SI2      9452  7.43  7.45
#>  3 id-5   0.72 Ideal VS1      2498  5.73  5.77
#>  4 id-6   2.02 Fair  SI2     14080  8.33  8.37
#>  5 id-8   0.51 Good  SI2      1029  5.05  5.08
#>  6 id-11  1.02 Good  VVS1     7861  6.37  6.4 
#>  7 id-13  0.56 Ideal SI1      1633  5.31  5.32
#>  8 id-14  0.3  Ideal VVS2      812  4.33  4.39
#>  9 id-15  0.28 Good  IF        612  4.09  4.12
#> 10 id-16  0.41 Good  I1        467  4.7   4.74
#> # … with 43 more rows
…
split a column and return a longer tibble

fancy_count(mini_diamond, cut, ext = clarity) %>%
  split_column(name_col = cut, value_col = clarity)
#> # A tibble: 24 × 2
#>    cut   clarity
#>    <chr> <chr>  
#>  1 Fair  I1(5)  
#>  2 Fair  IF(4)  
#>  3 Fair  SI1(5) 
#>  4 Fair  SI2(4) 
#>  5 Fair  VS1(3) 
#>  6 Fair  VS2(5) 
#>  7 Fair  VVS1(5)
#>  8 Fair  VVS2(4)
#>  9 Good  I1(5)  
#> 10 Good  IF(5)  
#> # … with 14 more rows

move selected rows to target location

# move row 3-5 after row 8
move_row(mini_diamond, 3:5, .after = 8)
#> # A tibble: 100 × 7
#>    id    carat cut   clarity price     x     y
#>    <chr> <dbl> <chr> <chr>   <int> <dbl> <dbl>
#>  1 id-1   1.02 Fair  SI1      3027  6.25  6.18
#>  2 id-2   1.51 Good  VS2     11746  7.27  7.18
#>  3 id-6   2.02 Fair  SI2     14080  8.33  8.37
#>  4 id-7   0.27 Good  VVS1      752  4.1   4.07
#>  5 id-8   0.51 Good  SI2      1029  5.05  5.08
#>  6 id-3   0.52 Ideal VVS1     2029  5.15  5.18
#>  7 id-4   1.54 Ideal SI2      9452  7.43  7.45
#>  8 id-5   0.72 Ideal VS1      2498  5.73  5.77
#>  9 id-9   1.01 Ideal SI1      5590  6.43  6.4 
#> 10 id-10  0.7  Fair  VVS1     1691  5.56  5.41
#> # … with 90 more rows

# move row 3-5 before the first row
move_row(mini_diamond, 3:5, .before = TRUE)
#> # A tibble: 100 × 7
#>    id    carat cut   clarity price     x     y
#>    <chr> <dbl> <chr> <chr>   <int> <dbl> <dbl>
#>  1 id-3   0.52 Ideal VVS1     2029  5.15  5.18
#>  2 id-4   1.54 Ideal SI2      9452  7.43  7.45
#>  3 id-5   0.72 Ideal VS1      2498  5.73  5.77
#>  4 id-1   1.02 Fair  SI1      3027  6.25  6.18
#>  5 id-2   1.51 Good  VS2     11746  7.27  7.18
#>  6 id-6   2.02 Fair  SI2     14080  8.33  8.37
#>  7 id-7   0.27 Good  VVS1      752  4.1   4.07
#>  8 id-8   0.51 Good  SI2      1029  5.05  5.08
#>  9 id-9   1.01 Ideal SI1      5590  6.43  6.4 
#> 10 id-10  0.7  Fair  VVS1     1691  5.56  5.41
#> # … with 90 more rows

# move row 3-5 after the last row
move_row(mini_diamond, 3:5, .after = TRUE)
#> # A tibble: 100 × 7
#>    id    carat cut   clarity price     x     y
#>    <chr> <dbl> <chr> <chr>   <int> <dbl> <dbl>
#>  1 id-1   1.02 Fair  SI1      3027  6.25  6.18
#>  2 id-2   1.51 Good  VS2     11746  7.27  7.18
#>  3 id-6   2.02 Fair  SI2     14080  8.33  8.37
#>  4 id-7   0.27 Good  VVS1      752  4.1   4.07
#>  5 id-8   0.51 Good  SI2      1029  5.05  5.08
#>  6 id-9   1.01 Ideal SI1      5590  6.43  6.4 
#>  7 id-10  0.7  Fair  VVS1     1691  5.56  5.41
#>  8 id-11  1.02 Good  VVS1     7861  6.37  6.4 
#>  9 id-12  0.71 Fair  IF       3205  5.87  5.81
#> 10 id-13  0.56 Ideal SI1      1633  5.31  5.32
#> # … with 90 more rows
…
remove columns by the ratio of NA, default to remove the columns only have NA

df_with_nacol <- dplyr::bind_cols(
  mini_diamond,
  tibble::tibble(na1 = NA, na2 = NA)
)
df_with_nacol
#> # A tibble: 100 × 9
#>    id    carat cut   clarity price     x     y na1   na2  
#>    <chr> <dbl> <chr> <chr>   <int> <dbl> <dbl> <lgl> <lgl>
#>  1 id-1   1.02 Fair  SI1      3027  6.25  6.18 NA    NA   
#>  2 id-2   1.51 Good  VS2     11746  7.27  7.18 NA    NA   
#>  3 id-3   0.52 Ideal VVS1     2029  5.15  5.18 NA    NA   
#>  4 id-4   1.54 Ideal SI2      9452  7.43  7.45 NA    NA   
#>  5 id-5   0.72 Ideal VS1      2498  5.73  5.77 NA    NA   
#>  6 id-6   2.02 Fair  SI2     14080  8.33  8.37 NA    NA   
#>  7 id-7   0.27 Good  VVS1      752  4.1   4.07 NA    NA   
#>  8 id-8   0.51 Good  SI2      1029  5.05  5.08 NA    NA   
#>  9 id-9   1.01 Ideal SI1      5590  6.43  6.4  NA    NA   
#> 10 id-10  0.7  Fair  VVS1     1691  5.56  5.41 NA    NA   
#> # … with 90 more rows

remove_nacol(df_with_nacol)
#> # A tibble: 100 × 7
#>    id    carat cut   clarity price     x     y
#>    <chr> <dbl> <chr> <chr>   <int> <dbl> <dbl>
#>  1 id-1   1.02 Fair  SI1      3027  6.25  6.18
#>  2 id-2   1.51 Good  VS2     11746  7.27  7.18
#>  3 id-3   0.52 Ideal VVS1     2029  5.15  5.18
#>  4 id-4   1.54 Ideal SI2      9452  7.43  7.45
#>  5 id-5   0.72 Ideal VS1      2498  5.73  5.77
#>  6 id-6   2.02 Fair  SI2     14080  8.33  8.37
#>  7 id-7   0.27 Good  VVS1      752  4.1   4.07
#>  8 id-8   0.51 Good  SI2      1029  5.05  5.08
#>  9 id-9   1.01 Ideal SI1      5590  6.43  6.4 
#> 10 id-10  0.7  Fair  VVS1     1691  5.56  5.41
#> # … with 90 more rows

# remove the columns that have more than 20% NA values
# remove_nacol(df_with_nacol, max_ratio=0.2)

remove rows by the ratio of NA

# remove_narow(df)

separate numeric vector into bins

vector <- dplyr::pull(mini_diamond, price, id)

hist_bins(vector, bins = 20)
#> # A tibble: 100 × 5
#>    id    value  start    end   bin
#>    <chr> <int>  <dbl>  <dbl> <int>
#>  1 id-1   3027  2218.  3097.     3
#>  2 id-2  11746 11000. 11879.    13
#>  3 id-3   2029  1340.  2218.     2
#>  4 id-4   9452  9244  10122.    11
#>  5 id-5   2498  2218.  3097.     3
#>  6 id-6  14080 13635  14513.    16
#>  7 id-7    752   462   1340.     1
#>  8 id-8   1029   462   1340.     1
#>  9 id-9   5590  4853   5731.     6
#> 10 id-10  1691  1340.  2218.     2
#> # … with 90 more rows

stat

statistical test which returns a extensible tibble

stat_test(mini_diamond, y = price, x = cut, .by = clarity)
#> # A tibble: 24 × 11
#>    clarity .y.   group1 group2    n1    n2 statistic     p p.adj p.adj…¹ p.sig…²
#>    <chr>   <chr> <chr>  <chr>  <int> <int>     <dbl> <dbl> <dbl> <chr>   <chr>  
#>  1 I1      price Fair   Good       5     5        18 0.31  0.62  ns      NS     
#>  2 I1      price Fair   Ideal      5     4        11 0.905 0.905 ns      NS     
#>  3 I1      price Good   Ideal      5     4         4 0.19  0.57  ns      NS     
#>  4 IF      price Fair   Good       4     5        18 0.064 0.177 ns      NS     
#>  5 IF      price Fair   Ideal      4     4        15 0.059 0.177 ns      NS     
#>  6 IF      price Good   Ideal      5     4        10 1     1     ns      NS     
#>  7 SI1     price Fair   Good       5     4        10 1     1     ns      NS     
#>  8 SI1     price Fair   Ideal      5     5        13 1     1     ns      NS     
#>  9 SI1     price Good   Ideal      4     5         6 0.413 1     ns      NS     
#> 10 SI2     price Fair   Good       4     4        15 0.057 0.171 ns      NS     
#> # … with 14 more rows, and abbreviated variable names ¹​p.adj.signif, ²​p.signif

fold change calculation which returns a extensible tibble

stat_fc(mini_diamond, y = price, x = cut, .by = clarity)
#> # A tibble: 72 × 7
#>    clarity group1 group2    y1    y2    fc fc_fmt
#>    <chr>   <chr>  <chr>  <dbl> <dbl> <dbl> <chr> 
#>  1 SI1     Fair   Fair   5844. 5844.  1    1.0x  
#>  2 SI1     Fair   Ideal  5844. 3877.  1.51 1.5x  
#>  3 SI1     Fair   Good   5844. 3227.  1.81 1.8x  
#>  4 VS2     Good   Good   5582. 5582.  1    1.0x  
#>  5 VS2     Good   Ideal  5582. 3024.  1.85 1.8x  
#>  6 VS2     Good   Fair   5582. 3529.  1.58 1.6x  
#>  7 VVS1    Ideal  Ideal  4652. 4652.  1    1.0x  
#>  8 VVS1    Ideal  Good   4652. 2810.  1.66 1.7x  
#>  9 VVS1    Ideal  Fair   4652. 2184   2.13 2.1x  
#> 10 SI2     Ideal  Ideal  4267. 4267.  1    1.0x  
#> # … with 62 more rows
…
