…
- split a column and return a longer dataframe

``` r
fancy_count(mini_diamond, "cut", "clarity") %>%
  split_column(name_col = "cut", value_col = "clarity")
#> # A tibble: 24 × 2
#>    cut   clarity
#>    <chr> <chr>  
#>  1 Fair  I1(5)  
#>  2 Fair  SI1(5) 
#>  3 Fair  VS2(5) 
#>  4 Fair  VVS1(5)
#>  5 Fair  IF(4)  
#>  6 Fair  SI2(4) 
#>  7 Fair  VVS2(4)
#>  8 Fair  VS1(3) 
#>  9 Ideal SI1(5) 
#> 10 Ideal VS1(5) 
#> # … with 14 more rows
```

- move selected rows to target location

``` r
# move row 3-5 after row 8
move_row(mini_diamond, 3:5, .after = 8)
#> # A tibble: 100 × 7
#>    id    carat cut   clarity price     x     y
#>    <chr> <dbl> <chr> <chr>   <int> <dbl> <dbl>
#>  1 id-1   1.02 Fair  SI1      3027  6.25  6.18
#>  2 id-2   1.51 Good  VS2     11746  7.27  7.18
#>  3 id-6   2.02 Fair  SI2     14080  8.33  8.37
#>  4 id-7   0.27 Good  VVS1      752  4.1   4.07
#>  5 id-8   0.51 Good  SI2      1029  5.05  5.08
#>  6 id-3   0.52 Ideal VVS1     2029  5.15  5.18
#>  7 id-4   1.54 Ideal SI2      9452  7.43  7.45
#>  8 id-5   0.72 Ideal VS1      2498  5.73  5.77
#>  9 id-9   1.01 Ideal SI1      5590  6.43  6.4 
#> 10 id-10  0.7  Fair  VVS1     1691  5.56  5.41
#> # … with 90 more rows

# move row 3-5 before the first row
move_row(mini_diamond, 3:5, .before = TRUE)
#> # A tibble: 100 × 7
#>    id    carat cut   clarity price     x     y
#>    <chr> <dbl> <chr> <chr>   <int> <dbl> <dbl>
#>  1 id-3   0.52 Ideal VVS1     2029  5.15  5.18
#>  2 id-4   1.54 Ideal SI2      9452  7.43  7.45
#>  3 id-5   0.72 Ideal VS1      2498  5.73  5.77
#>  4 id-1   1.02 Fair  SI1      3027  6.25  6.18
#>  5 id-2   1.51 Good  VS2     11746  7.27  7.18
#>  6 id-6   2.02 Fair  SI2     14080  8.33  8.37
#>  7 id-7   0.27 Good  VVS1      752  4.1   4.07
#>  8 id-8   0.51 Good  SI2      1029  5.05  5.08
#>  9 id-9   1.01 Ideal SI1      5590  6.43  6.4 
#> 10 id-10  0.7  Fair  VVS1     1691  5.56  5.41
#> # … with 90 more rows

# move row 3-5 after the last row
move_row(mini_diamond, 3:5, .after = TRUE)
#> # A tibble: 100 × 7
#>    id    carat cut   clarity price     x     y
#>    <chr> <dbl> <chr> <chr>   <int> <dbl> <dbl>
#>  1 id-1   1.02 Fair  SI1      3027  6.25  6.18
#>  2 id-2   1.51 Good  VS2     11746  7.27  7.18
#>  3 id-6   2.02 Fair  SI2     14080  8.33  8.37
#>  4 id-7   0.27 Good  VVS1      752  4.1   4.07
#>  5 id-8   0.51 Good  SI2      1029  5.05  5.08
#>  6 id-9   1.01 Ideal SI1      5590  6.43  6.4 
#>  7 id-10  0.7  Fair  VVS1     1691  5.56  5.41
#>  8 id-11  1.02 Good  VVS1     7861  6.37  6.4 
#>  9 id-12  0.71 Fair  IF       3205  5.87  5.81
#> 10 id-13  0.56 Ideal SI1      1633  5.31  5.32
#> # … with 90 more rows
```
…
## stat

- statistical test which returns a extensible tibble

``` r
stat_test(mini_diamond, y = price, x = cut, .by = clarity)
#> # A tibble: 24 × 11
#>    clarity .y.   group1 group2    n1    n2 statistic     p p.adj p.adj…¹ p.sig…²
#>    <chr>   <chr> <chr>  <chr>  <int> <int>     <dbl> <dbl> <dbl> <chr>   <chr>  
#>  1 I1      price Fair   Good       5     5        18 0.31  0.62  ns      NS     
#>  2 I1      price Fair   Ideal      5     4        11 0.905 0.905 ns      NS     
#>  3 I1      price Good   Ideal      5     4         4 0.19  0.57  ns      NS     
#>  4 IF      price Fair   Good       4     5        18 0.064 0.177 ns      NS     
#>  5 IF      price Fair   Ideal      4     4        15 0.059 0.177 ns      NS     
#>  6 IF      price Good   Ideal      5     4        10 1     1     ns      NS     
#>  7 SI1     price Fair   Good       5     4        10 1     1     ns      NS     
#>  8 SI1     price Fair   Ideal      5     5        13 1     1     ns      NS     
#>  9 SI1     price Good   Ideal      4     5         6 0.413 1     ns      NS     
#> 10 SI2     price Fair   Good       4     4        15 0.057 0.171 ns      NS     
#> # … with 14 more rows, and abbreviated variable names ¹​p.adj.signif, ²​p.signif
```

- fold change calculation which returns a extensible tibble

``` r
stat_fc(mini_diamond, y = price, x = cut, .by = clarity)
#> # A tibble: 1,266 × 7
#>    clarity cut_1 cut_2 price_1 price_2 fc_price fc_price_fmt
#>    <chr>   <chr> <chr>   <int>   <int>    <dbl> <chr>       
#>  1 SI1     Fair  Fair     3027    3027    1     1.0x        
#>  2 SI1     Fair  Ideal    3027    5590    0.542 0.54x       
#>  3 SI1     Fair  Ideal    3027    1633    1.85  1.9x        
#>  4 SI1     Fair  Good     3027    5252    0.576 0.58x       
#>  5 SI1     Fair  Good     3027     589    5.14  5.1x        
#>  6 SI1     Fair  Ideal    3027    5370    0.564 0.56x       
#>  7 SI1     Fair  Good     3027    4851    0.624 0.62x       
#>  8 SI1     Fair  Fair     3027    4480    0.676 0.68x       
#>  9 SI1     Fair  Fair     3027    1952    1.55  1.6x        
#> 10 SI1     Fair  Fair     3027   18026    0.168 0.17x       
#> # … with 1,256 more rows
```
…
