apply tbflt on dplyr filter — filterC • baizer
…
mini_diamond %>% filterC(c1 & c2)
#> # A tibble: 3 × 7
#>   id    carat cut   clarity price     x     y
#>   <chr> <dbl> <chr> <chr>   <int> <dbl> <dbl>
#> 1 id-6   2.02 Fair  SI2     14080  8.33  8.37
#> 2 id-48  2.01 Fair  I1       7294  8.3   8.19
#> 3 id-68  2.32 Fair  SI1     18026  8.47  8.31

x <- 8
cond <- tbflt(y > x)

# variable `x` not used because of column `x` in `mini_diamond`
filterC(mini_diamond, cond)
#> # A tibble: 53 × 7
#>    id    carat cut   clarity price     x     y
#>    <chr> <dbl> <chr> <chr>   <int> <dbl> <dbl>
#>  1 id-3   0.52 Ideal VVS1     2029  5.15  5.18
#>  2 id-4   1.54 Ideal SI2      9452  7.43  7.45
#>  3 id-5   0.72 Ideal VS1      2498  5.73  5.77
#>  4 id-6   2.02 Fair  SI2     14080  8.33  8.37
#>  5 id-8   0.51 Good  SI2      1029  5.05  5.08
#>  6 id-11  1.02 Good  VVS1     7861  6.37  6.4 
#>  7 id-13  0.56 Ideal SI1      1633  5.31  5.32
#>  8 id-14  0.3  Ideal VVS2      812  4.33  4.39
#>  9 id-15  0.28 Good  IF        612  4.09  4.12
#> 10 id-16  0.41 Good  I1        467  4.7   4.74
#> # ℹ 43 more rows
…
